[gd_scene load_steps=2 format=2]

[ext_resource path="res://Scripts/DialogueSection.gd" type="Script" id=2]

[node name="Polygon2D" type="ColorRect"]
anchor_top = 0.864
anchor_bottom = 0.864
margin_left = 3.0
margin_top = -138.4
margin_right = 1023.0
margin_bottom = 80.6
color = Color( 0.211765, 0.0823529, 0.0823529, 1 )
script = ExtResource( 2 )
__meta__ = {
"_edit_use_anchors_": false
}

[node name="RichTextLabel" type="RichTextLabel" parent="."]
margin_left = 15.0
margin_top = 20.7937
margin_right = 999.0
margin_bottom = 198.794
bbcode_enabled = true
__meta__ = {
"_edit_use_anchors_": false
}

[node name="Timer" type="Timer" parent="."]
wait_time = 0.05
autostart = true
[connection signal="timeout" from="Timer" to="." method="_on_Timer_timeout"]
