[gd_scene load_steps=4 format=2]

[ext_resource path="res://Assets/Tilesets/spikes.tres" type="TileSet" id=1]


[sub_resource type="RectangleShape2D" id=1]
extents = Vector2( 29.1632, 4.30846 )

[sub_resource type="RectangleShape2D" id=2]
extents = Vector2( 29.3859, 5.19936 )

[node name="StaticBody2D" type="StaticBody2D"]

[node name="TileMap" type="TileMap" parent="."]
tile_set = ExtResource( 1 )
cell_size = Vector2( 8, 8 )
cell_quadrant_size = 8
format = 1
tile_data = PoolIntArray( 0, 1, 2, 1, 1, 2, 2, 1, 2, 3, 1, 2, 4, 1, 2, 5, 1, 2, 6, 1, 2 )

[node name="CollisionShape2D" type="CollisionShape2D" parent="."]
position = Vector2( 29.3997, 4.89994 )
shape = SubResource( 1 )

[node name="Area2D" type="Area2D" parent="." groups=[
"Threat",
]]

[node name="CollisionShape2D" type="CollisionShape2D" parent="Area2D"]
position = Vector2( 30.0678, 4.45449 )
shape = SubResource( 2 )
